^C:\USERS\STUDENT\DESKTOP\MRTK-TEST-MASTER\NEWBUILD\BUILD\OBJ\MRTK TEST\ARM\DEBUG\APP.OBJ|C:\USERS\STUDENT\DESKTOP\MRTK-TEST-MASTER\NEWBUILD\BUILD\OBJ\MRTK TEST\ARM\DEBUG\MAIN.OBJ|C:\USERS\STUDENT\DESKTOP\MRTK-TEST-MASTER\NEWBUILD\BUILD\OBJ\MRTK TEST\ARM\DEBUG\PCH.OBJ|C:\USERS\STUDENT\DESKTOP\MRTK-TEST-MASTER\NEWBUILD\BUILD\OBJ\MRTK TEST\ARM\DEBUG\UNITYGENERATED.OBJ|C:\USERS\STUDENT\DESKTOP\MRTK-TEST-MASTER\NEWBUILD\MRTK TEST\RESOURCE.RES
/OUT:"C:\USERS\STUDENT\DESKTOP\MRTK-TEST-MASTER\NEWBUILD\BUILD\BIN\ARM\DEBUG\MRTK TEST.EXE" /INCREMENTAL /ILK:"C:\USERS\STUDENT\DESKTOP\MRTK-TEST-MASTER\NEWBUILD\BUILD\OBJ\MRTK TEST\ARM\DEBUG\MRTK TEST.ILK" /NOLOGO WINDOWSAPP.LIB "C:\USERS\STUDENT\DESKTOP\MRTK-TEST-MASTER\NEWBUILD\BUILD\BIN\ARM\DEBUG\GAMEASSEMBLY.LIB" WINDOWSAPP.LIB /MANIFEST:NO /DEBUG:FULL /PDB:"C:\USERS\STUDENT\DESKTOP\MRTK-TEST-MASTER\NEWBUILD\BUILD\BIN\ARM\DEBUG\MRTK TEST.PDB" /SUBSYSTEM:WINDOWS /TLBID:1 /APPCONTAINER /WINMD /WINMDFILE:"C:\USERS\STUDENT\DESKTOP\MRTK-TEST-MASTER\NEWBUILD\BUILD\BIN\ARM\DEBUG\MRTK_TEST.WINMD" /DYNAMICBASE /NXCOMPAT /MACHINE:ARM "C:\USERS\STUDENT\DESKTOP\MRTK-TEST-MASTER\NEWBUILD\BUILD\OBJ\MRTK TEST\ARM\DEBUG\APP.OBJ"
"C:\USERS\STUDENT\DESKTOP\MRTK-TEST-MASTER\NEWBUILD\BUILD\OBJ\MRTK TEST\ARM\DEBUG\MAIN.OBJ"
"C:\USERS\STUDENT\DESKTOP\MRTK-TEST-MASTER\NEWBUILD\BUILD\OBJ\MRTK TEST\ARM\DEBUG\PCH.OBJ"
"C:\USERS\STUDENT\DESKTOP\MRTK-TEST-MASTER\NEWBUILD\BUILD\OBJ\MRTK TEST\ARM\DEBUG\UNITYGENERATED.OBJ"
"C:\USERS\STUDENT\DESKTOP\MRTK-TEST-MASTER\NEWBUILD\MRTK TEST\RESOURCE.RES"
