%YAML 1.1
%TAG !u! tag:unity3d.com,2011:
--- !u!162 &1
EditorUserSettings:
  m_ObjectHideFlags: 0
  serializedVersion: 4
  m_ConfigSettings:
    RecentlyUsedScenePath-0:
      value: 22424703114646680e0b0227036c7d1c1719130b1e66333e243d04
      flags: 0
    RecentlyUsedScenePath-1:
      value: 22424703114646680e0b0227036c4b150503563f22213229
      flags: 0
    RecentlyUsedScenePath-2:
      value: 224247031146467e150f01321c267e0305120c39631b2535232c0e7cd1e13928eee205eae2343a722c0ce6281d
      flags: 0
    RecentlyUsedScenePath-3:
      value: 22424703114646763f3a276d353b5e1d061b1d39630c233d223a5217ebe13336edf422e0e429700f3a07e13917712536f30d0704e51f0308022af8031eb1051d18d101
      flags: 0
    RecentlyUsedScenePath-4:
      value: 22424703114646763f3a276d353b5e1d061b1d39630c233d223a521be3ee300cf0e635e2ee3438730a01ea32012d4e17f3040d22f81f0f19100de9071ef1350b10c808c91fdb5109c51008d7
      flags: 0
    RecentlyUsedScenePath-5:
      value: 22424703114646680e0b0227036c7222223c58282d3b23703e2a183de7ae2136ebf32f
      flags: 0
    RecentlyUsedScenePath-6:
      value: 22424703114646680e0b0227036c7c1813040c19293c3320633c133af6f9
      flags: 0
    vcSharedLogLevel:
      value: 0d5e400f0650
      flags: 0
  m_VCAutomaticAdd: 1
  m_VCDebugCom: 0
  m_VCDebugCmd: 0
  m_VCDebugOut: 0
  m_SemanticMergeMode: 2
  m_VCShowFailedCheckout: 1
  m_VCOverwriteFailedCheckoutAssets: 1
  m_VCProjectOverlayIcons: 1
  m_VCHierarchyOverlayIcons: 1
  m_VCOtherOverlayIcons: 1
  m_VCAllowAsyncUpdate: 1
